{
    "Metadata": {
        "Name": "msdev.local",
        "APIVersion": "v1",
        "Kind": "ExternalSessionsSourceV1",
        "ETag": 0,
        "ExternalResource": false,
        "ExternalSource": null
    },
    "Data": {
        "Type": "MSADEvents",
        "GetMode": "passive wait",
        "ExternalUsersSourceName": "msdev.local",
        "Settings": {},
        "ExternalSessions": []
    }
}